String processing in R
…
Exercise 3: Now that we know the format of each
line, we can write regular expressions to extract the name from each
format. Let’s start with the first format,
{name} is employed as a {job} at {company}. How can we
extract job from job_strings?

job_data %>%
  filter(format == 1) %>%
  mutate(job = job_strings %>%
           str_remove(" at .+") %>%
           str_remove(".+ is employed as a"))

## # A tibble: 158 × 3
##    job_strings                                                                     format job           
##    <chr>                                                                            <dbl> <chr>         
##  1 Yandel Erdman is employed as a Clinical biochemist at Jakubowski-Jakubowski          1 " Clinical bi…
##  2 Dr. Garland Zboncak is employed as a Public librarian at Sanford-Sanford             1 " Public libr…
##  3 Dwain Nicolas-Considine is employed as a Broadcast presenter at Sanford-Sanford      1 " Broadcast p…
##  4 Bert McGlynn is employed as a Interior and spatial designer at Reichel-Reichel       1 " Interior an…
##  5 Judie Gusikowski is employed as a Administrator, arts at Corwin and Sons             1 " Administrat…
##  6 Zula Rau is employed as a Land/geomatics surveyor at Jakubowski-Jakubowski           1 " Land/geomat…
##  7 Buel Hyatt PhD is employed as a Programmer, multimedia at Schroeder Inc              1 " Programmer,…
##  8 Aliza Sporer-Kris is employed as a Writer at Schroeder Inc                           1 " Writer"     
##  9 Eleanor Bergnaum-Weissnat is employed as a Counsellor at Jakubowski-Jakubowski       1 " Counsellor" 
## 10 Dr. Arlene Willms is employed as a Set designer at Olson, Olson and Olson            1 " Set designe…
## # ℹ 148 more rows
…
