String processing in R
…
Let’s start with the first format:

{name} is employed as a {job} at {company}

How can we extract job?

job_data %>%
  filter(format == 1) %>%
  mutate(job = job_strings %>%
           str_remove(" at .+") %>%
           str_remove(".+ is employed as a"))

## # A tibble: 158 × 3
##    job_strings                                                      format job  
##    <chr>                                                             <dbl> <chr>
##  1 Yandel Erdman is employed as a Clinical biochemist at Jakubowsk…      1 " Cl…
##  2 Dr. Garland Zboncak is employed as a Public librarian at Sanfor…      1 " Pu…
##  3 Dwain Nicolas-Considine is employed as a Broadcast presenter at…      1 " Br…
##  4 Bert McGlynn is employed as a Interior and spatial designer at …      1 " In…
##  5 Judie Gusikowski is employed as a Administrator, arts at Corwin…      1 " Ad…
##  6 Zula Rau is employed as a Land/geomatics surveyor at Jakubowski…      1 " La…
##  7 Buel Hyatt PhD is employed as a Programmer, multimedia at Schro…      1 " Pr…
##  8 Aliza Sporer-Kris is employed as a Writer at Schroeder Inc            1 " Wr…
##  9 Eleanor Bergnaum-Weissnat is employed as a Counsellor at Jakubo…      1 " Co…
## 10 Dr. Arlene Willms is employed as a Set designer at Olson, Olson…      1 " Se…
## # ℹ 148 more rows
